{
  "context": {
    "0": {
      "text": "Une douleur soudaine se déclenche et te donne une sensation désagréable de ne pas être au bon endroit. C’est avec difficulté que ta conscience émerge, que tu commence à comprendre ce qui se passe, et que tu parviens à entendre une voix fébrile s’adresser à toi : \n'Réveille toi…... allez gamine, reste pas inconsciente…'\nTu réussis à ouvrir lentement tes yeux, et à comprendre ton environnement. Tu es allongée dans un lit assez crasseux, une couverture sur toi. Ce lit est collé au mur par sa gauche, tandis qu’à ta droite est allongé un vieil homme qui te regarde et affiche de plus en plus clairement un sourire de joie. \nDes cheveux mouillés d’un gris brume, des rides et un sourire béat définissent son visage, tandis que son corps, fatigué et tremblant, couvert de bandages, de cicatrices et de sueur n’est recouvert que d’un tabard représentant un cercle rouge comprenant deux carré rouge. Il a repoussé sa couverture à ses pieds, laissant à découvert ses jambes fines noueuses mais musclés. Il tiens à sa main un bâton allongé et fin, et tu comprends rapidement que c’est l’élément de ta douleur soudaine. Tu en profites pour regarder le reste du lieu qui t’entoure, et tu vois que c’est une maison de petite taille et de piètre facture, une maison de paysan selon tes déductions. Après avoir fait le tour de ton inspection sommaire, tu te tourne de nouveau vers cette homme qui semble être la seule autre personne présente.\n'Je suis tellement soulagé que tu te sois enfin réveillée ! Deux jours que tu dors, gamine, je me faisais un sang d’encre. Ton père t’a confié à moi il y a de ça si longtemps, que je te considère comme ma propre fille, et te voir comme ça, sans conscience, allongé et inanimé…..mon cœur ne l’aurai pas supporté si tu étais resté plus longtemps ainsi. Quoique, comme tu peux voir, mon état actuel n’est pas vraiment des meilleurs. Force est de constater que combattre ces gars, était plus difficile que prévu. Remercions ces braves paysans d’avoir bien voulu prendre soin de nous.' te dit-il, un peu en haletant. ' Nous étions les protecteurs de cet artefact, l’ordre des chevaliers Minpsol du ProReact, nous aurions dû être mieux préparé à cette attaque, à ce vol....'\nAprès avoir parlé autant, il se rallongea sur sa couche, tout transpirant. Tu peux alors voir que son abdomen couvert de bandages est teinté de sang qui se mêle aux couleurs de son tabard. Il lâche son bâton et cherche à avoir ta main, que tu lui donne sans même réfléchir.\n'Sois forte, sois courageuse, et corrige l’injustice qui nous a été fait.'Il te lâche la main, ferme les yeux et respire difficilement. En regardant cet homme blessé, tu penses à tes bandages et regardes tes blessures, qui ne sont heureusement que superficielles ou peu profondes. Soulagée sur ce point là, tu souhaites te redresser et découvre une autre bonne nouvelle, à tes cotés sur le cadre de lit se trouve une arme, ton arme.",
      "choices": [
        {
          "text": "Rassurée mais inquiète, tu secoues un peu le vieil homme pour lui parler et savoir plus en détail la situation.",
          "target": "1"
        },
        {
          "text": "Tu te lève et va fouiller la pièce où tu te trouve.",
          "target": "2"
        },
        {
          "text": "Tu te lève et va à la porte pour voir les environs en dehors de la masure où tu te trouve.",
          "target": "3"
        }
      ]
    },
    "1": {
      "text": "Tu pose ta main délicatement sur son épaule et le secoue doucement, ne voulant pas le brusquer. Il rouvre les yeux, te regardes et directement arbore un sourire. 'Tu ressembles tellement à ta mère. Elle avait un fort caractère, était indépendante et belle, et il avait fallu peu de temps avant que ton père ne tombe sous son charme. Tu es née peu de temps après leur mariage tu sais. Je me souviens encore très bien de ton père après tes deux ans, me prenant à part et me disant ‘ Tu sais Jean-Eudes, tu es mon meilleur ami et ce depuis des années, tu es comme mon frère ! Tu es le meilleur guerrier que je connaisse,  et j’aimerai que t’occupe de l’apprentissage martial de ma fille. Tu peux faire ça pour moi ? Sois son gardien et son mentor.’ J’en fus tellement honoré, je respectais tellement ton père. C’est une tragédie ce qui leur est arrivé, cet accident, ???. J’ai t’ai prise sous mon aile, essayant tant bien que mal de te préparer au monde, à te préparer pour devenir une fière membre de notre ordre de chevalerie, l’ordre des Minpsol du ProReact. Assurant le maintien de l’ordre et de la justice, nous étions les protecteur de la Tasse sacré. Cette artefact, la Tasse de crystal. Il paraît que celle-ci a la faculté de faire apparaître des ruby. Tout ça avant qu’elle nous soit volé, par un infâme malandrin, un mécréant de la pire espèce, un sale vilipendeur qui….' \nIl se mit à tousser douloureusement, crachant du sang, rouvrant sa blessure abdominale. Il ne s’arrêta de tousser qu’après quelques minutes. Tu le recoucha sur son lit, puis lui ordonna de se reposer. Il te souris encore, alors que de la bave et du sang ornaient encore sa lèvre inférieure. Il parla d’une faible voix : 'J’ai trop parlé, tu as raison, du repos me sera sûrement bénéfique. Je suis navré, je pense que le vieillard que je suis ne pourra plus te suivre actuellement, je suis fatigué. Je suis fière de toi gamine…'. Il ferma les yeux, et soupira, alternant entre respiration saccadée et petite quinte de toux.",
      "choices": [
        {
          "text": "Tu décides de te rapprocher de la porte pour découvrir l’extérieur de la maison qui t’accueille.",
          "target": "5"
        },
        {
          "text": "Tu décides de fouiller la pièce où tu te trouve.",
          "target": "6"
        }
      ]
    },
    "2": {
      "text": "Tu te lève, testes la solidité de tes jambes et vois que tu tiens bien. Puis tu commence par faire le tour de ton lit et du lit de ton comparse blessé. Tu trouve au pied de ton lit ton armure de buste, d’un cuir fatigué, orné du même symbole que le tabard de ton compagnon de chambrée. Les personnes qui t’ont misent au lit te l’on enlevé sûrement à ce moment là. Tu reconnais facilement les coups qui t’ont blessé grâce aux rares trous de ton armures. Tu la mets sans hésiter, sans difficulté. De plus, en finissant de la mettre, tu aperçois à tes pieds un objet rond et métallique, une boussole, que tu mets directement dans ton sac.",
      "choices": [
        {
          "text": "Maintenant que tu es équipée, tu décides de te rapprocher de l’homme allongé et de lui parler.",
          "target": "4"
        },
        {
          "text": "Tu décides de te rapprocher de la porte pour découvrir l’extérieur de la maison qui t’accueille.",
          "target": "5"
        }
      ]
    },
    "3": {
      "text": "Tu te lève, puis sans déranger ton comparse blessé tu te dirige vers la porte donnant sur l’extérieur. Tu tends d’abord l’oreille, et entends un peu de chahut dehors. Tu entrouvres alors la porte et regardes la cause de celui-ci. Tu vois plusieurs maisons quelque peu vétustes mais de bonne facture de même que des arbres parsemés un peu partout qui forment en tout un village visuellement agréable. Sur un coté du village, on peut apercevoir une forêt naissante. Les maisons sont disposées autour d’une petite place qui a en son centre un puit. Sur cette place, qui se situe à une dizaine de mètre de toi, plusieurs villageois cours en tous sens tandis que d’autres sont figés sur place, car parmi ce décors rupestre se déroule un massacre. Des hommes armés tuent hommes femmes et enfants, fauchent ces âmes sans qu’une once regret ou de remord ne naisse sur leurs visages. Ils sont bien armée, ont l’air entraîné, et porte tous les mêmes couleurs : des soldats !",
      "choices": [
        {
          "text": "Il sont trop nombreux, tu refermes la porte et cherche un moyen de t’en sortir avec le vieil homme.",
          "target": "7"
        },
        {
          "text": "Ils sont trop nombreux, tu décides de partir de la maison et d’aller te cacher dans la forêt avoisinante. Tu as confiance, le vieil homme est en sécurité.",
          "target": "8"
        },
        {
          "text": "Outrée par ce ces actions, tu décides d’intervenir et de sauver des villageois.",
          "target": "9"
        }
      ]
    },
    "4": {
      "text": "Après avoir mis la boussole dans ton sac, tu te diriges vers la lit de ton vieux compagnon. Mais c’est avec surprise que tu découvre que celui-ci ne respire plus. Ses blessures ont eu raison de lui. Tu lui mets sa couverture sur son visage tandis qu’une larme roule sur ta joue. Ensuite, tu te diriges vers la porte retenant ta tristesse.",
      "choices": [
        {
          "text": "Tu ouvres la porte.",
          "target": "5"
        }
      ]
    },
    "5": {
      "text": "Tu ouvres la porte et regardes dehors. Tu vois plusieurs maisons quelque peu vétustes mais de bonne facture de même que des arbres parsemés un peu partout qui forment en tout un village visuellement agréable. Sur un coté du village, on peut apercevoir une forêt naissante. Les maisons sont disposées autour d’une petite place qui a en son centre un puit. Sur cette place, qui se situe à une dizaine de mètre de toi, plusieurs villageois cours en tous sens tandis que d’autres sont figés sur place, car parmi ce décors rupestre se déroule un massacre. Des hommes armés tuent hommes femmes et enfants, fauchent ces âmes sans qu’une once regret ou de remord ne naisse sur leurs visages. L’un d’eux relève la tête, t’aperçois et crie 'Elle est là !!!'",
      "choices": [
        {
          "text": "Ils sont trop nombreux, tu décides de partir de la maison et d’aller te cacher dans la forêt avoisinante.",
          "target": "8"
        }
      ]
    },
    "6": {
      "text": "Tu te lève, testes la solidité de tes jambes et vois que tu tiens bien. Puis tu commence par faire le tour de ton lit et du lit de ton comparse blessé. Tu trouve au pied de ton lit ton armure de buste, d’un cuir fatigué, orné du même symbole que le tabard de ton compagnon de chambrée. Les personnes qui t’ont misent au lit te l’on enlevé sûrement à ce moment là. Tu reconnais facilement les coups qui t’ont blessé grâce aux rares trous de ton armures. Tu la mets sans hésiter, sans difficulté. De plus, en finissant de la mettre, tu aperçois à tes pieds un objet rond et métallique, une boussole.",
      "choices": [
        {
          "text": "Tu mets la boussole dans ton sac.",
          "target": "4"
        }
      ]
    },
    "7": {
      "text": "Tu te diriges vers la lit de ton vieux compagnon. Mais c’est avec surprise que tu découvre que celui-ci ne respire plus. Ses blessures ont eu raison de lui. Tu lui mets sa couverture sur son visage tandis qu’une larme roule sur ta joue. Ensuite, tu te diriges vers la porte retenant ta tristesse. \nVoyant que tu  seras tout seul maintenant, et qu’il y a trop d’hommes armés dans ce village, tu ne pourras pas tous les vaincre. Surtout que dans ces hommes armés, tu as repéré des archers. Tu regardes  autour de toi et ne vois qu’une fenêtre par où passer et qu’une forêt où te cacher. Tu prends donc la décision de passer par celle-ci et de te mettre à couvert hors du village.",
      "choices": [
        {
          "text": "Après avoir rejoins l’autre coté de la maison, tu cours vers la forêt.",
          "target": "10"
        }
      ]
    },
    "8": {
      "text": "Tu sors de la maison en courant, pour mettre le plus de distance entre toi et ces soldats. Ceux-ci te pourchassent et criant divers ordres ou insultes, te forçant à presser le pas. A un moment tu entends un bruit différent et  vois à ta grande surprise une flèche se ficher dans une poutre proche de toi. Des archers ! Tu essayes de courir et te cachant, mais cela n’empêche pas les flèches de fuser autour de toi.\nOOO        Fais un test de agiAction : Test raté = tu te prends une flèche, tu perds -1hp.",
      "choices": [
        {
          "text": "Tu cours vers la forêt.",
          "target": "10"
        }
      ]
    },
    "9": {
      "text": "Le comportement de ces soldats t’indigne et te mets vraiment en colère, tellement que tu ne peux réfléchir et tu sors à la rencontre du premier soldat que tu vois. Lorsque tu arrives à sa portée, celui-ci se retourne et crie 'Elle est là !!!'.\nOOO       Combat : Raté = mort.",
      "choices": [
        {
          "text": "Galvanisé par ta victoire tu décides d’en attaquer un autre.",
          "target": "11"
        },
        {
          "text": "C’était un beau combat, mais il était plus dur que prévu, tu vas tenter de ruser pour les prochains.",
          "target": "12"
        },
        {
          "text": "Le combat était dur, et tu ne pourrais pas en faire d’autre, tu décides de fuir en dehors du village.",
          "target": "13"
        }
      ]
    },
    "11": {
      "text": "Tu en as tué un ! Assez facilement qui plus est. Tu te dis que tu as toutes tes chances et tu cherche du regards ta futur cible, le prochain mort ! Néanmoins, en cherchant ainsi, tu te rends compte que d’autre regards sont tournés vers toi. Il y a comme un instant de flottement où les tueries et pillages cessent, où tous te regardent fixement sans mot dire. Ce passage t’as semblé duré une éternité alors que seulement quelques secondes sont passées. Et au bout de ce laps de temps, un des hommes armés ouvre la bouche et crie d’un crie puissant qui se fait entendre dans un bon périmètre 'Elle est là !!!'",
      "choices": [
        {
          "text": "Au vu de l’attention que l’on porte maintenant, tu sais que tu n’as aucune chances de tous les combattre et décides de fuir en dehors du village.",
          "target": "13"
        },
        {
          "text": "Tu as beaucoup d’attention sur toi maintenant, mais tu penses que tous les combattre grâce à la ruse , ça serait possible.",
          "target": "16"
        }
      ]
    },
    "12": {
      "text": "Après ce combat, tu te dis qu’une attaque frontale mènerai à ton décès et que seule la ruse peut être ton alliée. Tu regardes donc autour de toi pour jauger la situation, et vois que les combats sont plus proche de toi que tu ne le pensais. Et alors que tu commences à avancer pour trouver une cachette pour pouvoir les prendre à revers, tu vois une flèches se ficher dans une poutre proche de toi. Des archers ! Tu essayes de courir et te cachant mieux, mais cela n’empêche pas les flèches de fuser autour de toi.\nOOO       Fais un test de agiAction : Test raté = tu te prends une flèche, tu perds -1hp.",
      "choices": [
        {
          "text": "Suite à cette action de ruse raté, tu souhaites rejoindre au plus vite la forêt.",
          "target": "10"
        }
      ]
    },
    "13": {
      "text": "Tu regardes autour de toi, et vois que tout les regards sont braqué sur toi. Toute cette attention te mets une forte pression, et cette pression te permet de forcer sur tes jambes qui étaient encore amorphes il y a peu de temps. Tu fonces vers la forêt, en évitant au maximum de courir en ligne droite, mais cela n’empêche pas d’entendre des bruits fuser autour de toi, des flèches ! Tu essayes de courir et te cachant mieux, mais cela n’empêche pas les flèches de fuser autour de toi.\nOOO        Fais un test de agiAction : Test raté = tu te prends une flèche, tu perds -1hp.",
      "choices": [
        {
          "text": "Suite à cette course effréné, tu souhaites rejoindre au plus vite la forêt.",
          "target": "10"
        }
      ]
    },
    "16": {
      "text": "En rusant tu penses pouvoir venir à bout de ces mécréants. Tu te diriges vite vers un abri, pour essayer de faire perdre ta traces aux soldats t’ayant repérer. Tu trouves une charrette. Après t’être mis derrière celle-ci, tu regardes  autour de toi pour jauger la situation, et alors que tu commences à échafauder un plan pour pouvoir les prendre à revers, tu vois une flèches se ficher dans une poutre proche de toi. Des archers ! Ils t’ont repéré ! Tu sors de ton maigre abri et cours en te cachant au mieux, mais cela n’empêche pas les flèches de fuser autour de toi. La ruse n’est plus de mise, il ne te reste que la solution forêt.\nOOO         Fais un test de agiAction : Test raté = tu te prends une flèche, tu perds -1hp.",
      "choices": [
        {
          "text": "Suite à cette action de ruse raté, tu souhaites rejoindre au plus vite la forêt.",
          "target": "10"
        }
      ]
    }
  }
}